{
    "authors": [
        "Christopho"
    ],
    "categories": [
        "Solarus"
    ],
    "creation_date": "2011-01-10",
    "excerpt": "Hi everyone,\r\n\r\nDuring the last months of 2010, I worked hard to move all the equipment stuff from the C++ engine to the data files. This work is....",
    "id": "2011-01-10-new-equipment-system-finished-zsdx-is-the-priority-in-2011",
    "image_thumbnail": "..\/..\/..\/..\/..\/assets\/blog\/default_article_thumbnail.jpg",
    "page_override": {
        "meta_description": "",
        "meta_title": "New equipment system finished, ZSDX is the priority in 2011",
        "parent": "news",
        "slug": "news/2011-01-10-new-equipment-system-finished-zsdx-is-the-priority-in-2011",
        "title": "New equipment system finished, ZSDX is the priority in 2011"
    },
    "page_slug": "news/2011-01-10-new-equipment-system-finished-zsdx-is-the-priority-in-2011",
    "publish": true,
    "title": "New equipment system finished, ZSDX is the priority in 2011"
}