{
    "authors": [
        "Christopho"
    ],
    "categories": [
        "Solarus"
    ],
    "creation_date": "2013-04-23",
    "excerpt": "I have just reorganized the git repository of Solarus. Our quests are now in separated git repositories. The main repository....",
    "id": "2013-04-23-separating-projects",
    "image_thumbnail": "..\/..\/..\/..\/..\/assets\/blog\/default_article_thumbnail.jpg",
    "page_override": {
        "meta_description": "",
        "meta_title": "Separating projects",
        "parent": "news",
        "slug": "news/2013-04-23-separating-projects",
        "title": "Separating projects"
    },
    "page_slug": "news/2013-04-23-separating-projects",
    "publish": true,
    "title": "Separating projects"
}