{
    "authors": [
        "Christopho"
    ],
    "categories": [
        "Solarus"
    ],
    "creation_date": "2002-02-26",
    "excerpt": "Voici les screenshots réclamés par Netgamer sur le forum ! Ils correspondent à la news \"Les nouveautés récentes\" du 21 février : nouveaux....",
    "id": "2002-02-26-les-screenshots-promis",
    "image_thumbnail": "..\/..\/..\/..\/..\/assets\/blog\/default_article_thumbnail.jpg",
    "page_override": {
        "meta_description": "",
        "meta_title": "Les screenshots promis !",
        "parent": "news",
        "slug": "news/2002-02-26-les-screenshots-promis",
        "title": "Les screenshots promis !"
    },
    "page_slug": "news/2002-02-26-les-screenshots-promis",
    "publish": true,
    "title": "Les screenshots promis !"
}