{
    "authors": [
        "Christopho"
    ],
    "categories": [
        "Solarus"
    ],
    "creation_date": "2002-11-25",
    "excerpt": "Les bonnes choses ont malheureusement une fin ! Nous avons stoppé cette opération qui faisait apparemment plaisir à pas mal de monde mais pour....",
    "id": "2002-11-25-operation-1-screen-par-jour-c-est-fini",
    "image_thumbnail": "..\/..\/..\/..\/..\/assets\/blog\/default_article_thumbnail.jpg",
    "page_override": {
        "meta_description": "",
        "meta_title": "Opération 1 Screen par jour : c'est fini",
        "parent": "news",
        "slug": "news/2002-11-25-operation-1-screen-par-jour-c-est-fini",
        "title": "Opération 1 Screen par jour : c'est fini"
    },
    "page_slug": "news/2002-11-25-operation-1-screen-par-jour-c-est-fini",
    "publish": true,
    "title": "Opération 1 Screen par jour : c'est fini"
}