{
    "authors": [
        "Christopho"
    ],
    "categories": [
        "Solarus"
    ],
    "creation_date": "2012-01-16",
    "excerpt": "Alors que Zelda Mystery of Solarus DX vient de dépasser les 10000 téléchargements en moins d'un mois (merci à tous ! :D), l'émission Star Player....",
    "id": "2012-01-16-zelda-solarus-dx-a-la-tele",
    "image_thumbnail": "..\/..\/..\/..\/..\/assets\/blog\/default_article_thumbnail.jpg",
    "page_override": {
        "meta_description": "",
        "meta_title": "Zelda Solarus DX à la télé",
        "parent": "news",
        "slug": "news/2012-01-16-zelda-solarus-dx-a-la-tele",
        "title": "Zelda Solarus DX à la télé"
    },
    "page_slug": "news/2012-01-16-zelda-solarus-dx-a-la-tele",
    "publish": true,
    "title": "Zelda Solarus DX à la télé"
}