{
    "authors": [
        "Christopho"
    ],
    "categories": [
        "Solarus"
    ],
    "creation_date": "2001-07-04",
    "excerpt": "Vous avez sûrement remarqué dans la dernière série de screenshots (voir Section&nbsp;Galerie) pas mal de nouveautés techniques. Je vous propose....",
    "id": "2001-07-04-nouveaux-screenshots-link-qui-pose-une-bombe",
    "image_thumbnail": "..\/..\/..\/..\/..\/assets\/blog\/default_article_thumbnail.jpg",
    "page_override": {
        "meta_description": "",
        "meta_title": "Nouveaux screenshots : Link qui pose une Bombe",
        "parent": "news",
        "slug": "news/2001-07-04-nouveaux-screenshots-link-qui-pose-une-bombe",
        "title": "Nouveaux screenshots : Link qui pose une Bombe"
    },
    "page_slug": "news/2001-07-04-nouveaux-screenshots-link-qui-pose-une-bombe",
    "publish": true,
    "title": "Nouveaux screenshots : Link qui pose une Bombe"
}