{
    "authors": [
        "Christopho"
    ],
    "categories": [
        "Solarus"
    ],
    "creation_date": "2002-12-11",
    "excerpt": "Comme vous pouvez le voir, l'interface du site a été quelque peu modifiée. En effet le nouveau design rendait la navigation plus compliquée à....",
    "id": "2002-12-11-quelques-ameliorations-au-design",
    "image_thumbnail": "..\/..\/..\/..\/..\/assets\/blog\/default_article_thumbnail.jpg",
    "page_override": {
        "meta_description": "",
        "meta_title": "Quelques améliorations au design",
        "parent": "news",
        "slug": "news/2002-12-11-quelques-ameliorations-au-design",
        "title": "Quelques améliorations au design"
    },
    "page_slug": "news/2002-12-11-quelques-ameliorations-au-design",
    "publish": true,
    "title": "Quelques améliorations au design"
}