{
  "has_breadcrumb": true,
  "meta_description": "Packs de ressource Solarus (sprites, tilesets, sons, musiques, scripts)",
  "meta_title": "Packs de ressources",
  "parent": "development",
  "publish": true,
  "slug": "development/resource-packs",
  "title": "Packs de ressources"
}