{
    "authors": [
        "Christopho"
    ],
    "categories": [
        "Solarus"
    ],
    "creation_date": "2003-06-12",
    "excerpt": "Nous travaillons actuellement près de dix heures par jour sur la démo de Zelda : Advanced Project (titre provisoire). Il reste encore beaucoup de....",
    "id": "2003-06-12-bon-o-ca-en-est",
    "image_thumbnail": "..\/..\/..\/..\/..\/assets\/blog\/default_article_thumbnail.jpg",
    "page_override": {
        "meta_description": "",
        "meta_title": "Bon, où ça en est ?",
        "parent": "news",
        "slug": "news/2003-06-12-bon-o-ca-en-est",
        "title": "Bon, où ça en est ?"
    },
    "page_slug": "news/2003-06-12-bon-o-ca-en-est",
    "publish": true,
    "title": "Bon, où ça en est ?"
}