{
    "authors": ["Nintendo", "Auteurs multiples"],
    "downloads": [
      {
        "file": "https://gitlab.com/solarus-games/solarus-alttp-pack/-/archive/master/solarus-alttp-pack-master.zip",
        "label": ".zip file",
        "platform": "any",
        "content": "downloads/any.md",
        "version": "1.6.0"
      }
    ],
    "excerpt": "All the tools you need to build a Zelda A Link to the Past clone.",
    "id": "resource-pack-the-legend-of-zelda-a-link-to-the-past",
    "image_thumbnail": "images/thumbnail.png",
    "licenses": ["Proprietary (Fair use)", "GPL v3" ],
    "medias": [
      {
        "image": "medias/screen_1.png",
        "thumbnail": "medias/screen_1.png",
        "type": "image"
      },
      {
        "image": "medias/screen_2.png",
        "thumbnail": "medias/screen_2.png",
        "type": "image"
      },
      {
        "image": "medias/screen_3.png",
        "thumbnail": "medias/screen_3.png",
        "type": "image"
      },
      {
        "image": "medias/screen_4.png",
        "thumbnail": "medias/screen_4.png",
        "type": "image"
      },
      {
        "image": "medias/screen_5.png",
        "thumbnail": "medias/screen_5.png",
        "type": "image"
      },
      {
        "image": "medias/screen_6.png",
        "thumbnail": "medias/screen_6.png",
        "type": "image"
      },
      {
        "image": "medias/screen_7.png",
        "thumbnail": "medias/screen_7.png",
        "type": "image"
      },
      {
        "image": "medias/screen_8.png",
        "thumbnail": "medias/screen_8.png",
        "type": "image"
      }
    ],
    "page_override": {
      "meta_description": "Solarus resource pack based on Zelda: A Link to the Past (sprites, tilesets, sounds, musics, scripts).",
      "meta_title": "The Legend of Zelda: A Link to the Past",
      "slug": "development/resource-packs/the-legend-of-zelda-a-link-to-the-past",
      "title": "The Legend of Zelda: A Link to the Past"
    },
    "page_slug": "development/resource-packs/the-legend-of-zelda-a-link-to-the-past",
    "publish": true,
    "release_date": "2016-07-27",
    "solarus_version": "1.6.0",
    "source_code": "https://gitlab.com/solarus-games/solarus-alttp-pack",
    "title": "The Legend of Zelda: A Link to the Past",
    "version": "1.6.0"
  }