{
    "authors": [
        "Diarandor"
    ],
    "categories": [
        "Solarus"
    ],
    "creation_date": "2018-02-03",
    "excerpt": "Ahoy there! The Solarus Team has a second screenshot for you, from the project Children of Solarus. This time we show some houses of the village.....",
    "id": "2018-02-03-children-of-solarus-2nd-fortnightly-screenshot",
    "image_thumbnail": "..\/..\/..\/..\/..\/assets\/blog\/default_article_thumbnail.jpg",
    "page_override": {
        "meta_description": "",
        "meta_title": "Children of Solarus (2nd fortnightly screenshot)",
        "parent": "news",
        "slug": "news/2018-02-03-children-of-solarus-2nd-fortnightly-screenshot",
        "title": "Children of Solarus (2nd fortnightly screenshot)"
    },
    "page_slug": "news/2018-02-03-children-of-solarus-2nd-fortnightly-screenshot",
    "publish": true,
    "title": "Children of Solarus (2nd fortnightly screenshot)"
}