{
  "has_breadcrumb": true,
  "meta_description": "Migration guide from Solarus 1.1 to Solarus 1.2",
  "meta_title": "From v1.1 to v1.2",
  "parent": "development/tutorials/migration-guide",
  "publish": true,
  "slug": "development/tutorials/migration-guide/from-v1.1-to-v1.2",
  "title": "From v1.1 to v1.2"
}