{
    "authors": [
        "Christopho"
    ],
    "categories": [
        "Solarus"
    ],
    "creation_date": "2009-11-18",
    "excerpt": "Vous l'avez peut-être remarqué : un compteur a été ajouté sur la page d'accueil, indiquant le nombre de jours restants avant la sortie de la....",
    "id": "2009-11-18-plus-qu-un-mois",
    "image_thumbnail": "..\/..\/..\/..\/..\/assets\/blog\/default_article_thumbnail.jpg",
    "page_override": {
        "meta_description": "",
        "meta_title": "Plus qu'un mois !",
        "parent": "news",
        "slug": "news/2009-11-18-plus-qu-un-mois",
        "title": "Plus qu'un mois !"
    },
    "page_slug": "news/2009-11-18-plus-qu-un-mois",
    "publish": true,
    "title": "Plus qu'un mois !"
}