{
    "authors": [
        "Diarandor"
    ],
    "categories": [
        "Solarus"
    ],
    "creation_date": "2018-03-17",
    "excerpt": "Ahoy there! In this colorful screenshot of the project \"Children of Solarus\" we show part of the castle, still unfinished and yet splendid.....",
    "id": "2018-03-17-children-of-solarus-5th-fortnightly-screenshot",
    "image_thumbnail": "..\/..\/..\/..\/..\/assets\/blog\/default_article_thumbnail.jpg",
    "page_override": {
        "meta_description": "",
        "meta_title": "Children of Solarus (5th fortnightly screenshot)",
        "parent": "news",
        "slug": "news/2018-03-17-children-of-solarus-5th-fortnightly-screenshot",
        "title": "Children of Solarus (5th fortnightly screenshot)"
    },
    "page_slug": "news/2018-03-17-children-of-solarus-5th-fortnightly-screenshot",
    "publish": true,
    "title": "Children of Solarus (5th fortnightly screenshot)"
}