{
  "age": {
    "default_value": "-",
    "is_filter": true,
    "label": "Age",
    "required": false,
    "type": "category"
  },
  "authors": {
    "default_value": "-",
    "is_filter": true,
    "label": "Developer",
    "required": true,
    "type": "category"
  },
  "content": {
    "is_filter": false,
    "label": "Content",
    "required": true,
    "type": "content"
  },
  "controls": {
    "default_value": "-",
    "is_filter": true,
    "label": "Controls",
    "required": false,
    "type": "category_icon"
  },
  "excerpt": {
    "is_filter": false,
    "label": "Excerpt",
    "required": true,
    "type": "string"
  },
  "extras": {
    "default_value": false,
    "is_filter": false,
    "label": "Extras",
    "required": false,
    "type": "object"
  },
  "downloads": {
    "default_value": false,
    "is_filter": false,
    "label": "Downloads",
    "required": false,
    "type": "downloads"
  },
  "icons": {
    "is_filter": false,
    "label": "Icons",
    "required": false,
    "type": "images"
  },
  "id": {
    "is_filter": false,
    "label": "Id",
    "required": true,
    "type": "string"
  },
  "image_cover": {
    "is_filter": false,
    "label": "Image cover",
    "required": true,
    "type": "image"
  },
  "image_logo": {
    "is_filter": false,
    "label": "Image logo",
    "required": true,
    "type": "image"
  },
  "image_logo_author": {
    "is_filter": false,
    "label": "Image team",
    "required": true,
    "type": "image"
  },
  "image_thumbnail": {
    "is_filter": false,
    "label": "Image thumbnail",
    "required": true,
    "type": "image"
  },
  "languages": {
    "default_value": "-",
    "is_filter": true,
    "label": "Type",
    "required": false,
    "type": "category"
  },
  "licenses": {
    "default_value": "-",
    "is_filter": true,
    "label": "License",
    "required": false,
    "type": "category"
  },
  "medias": {
    "default_value": false,
    "is_filter": false,
    "label": "Medias",
    "required": false,
    "type": "media"
  },
  "page_override": {
    "is_filter": false,
    "label": "Page override",
    "required": true,
    "type": "object"
  },
  "page_slug": {
    "is_filter": false,
    "label": "Page slug",
    "required": true,
    "type": "url"
  },
  "players": {
    "default_value": "-",
    "is_filter": true,
    "label": "Players",
    "required": false,
    "type": "string"
  },
  "publish": {
    "is_filter": false,
    "label": "Publish?",
    "required": true,
    "type": "boolean"
  },
  "release_date": {
    "default_value": "Not released",
    "is_filter": false,
    "label": "Release date",
    "required": false,
    "type": "date"
  },
  "solarus_version": {
    "default_value": "-",
    "is_filter": false,
    "label": "Solarus version",
    "required": false,
    "type": "string"
  },
  "source_code": {
    "default_value": "#",
    "is_filter": false,
    "label": "Source code",
    "required": false,
    "type": "string"
  },
  "types": {
    "default_value": "-",
    "is_filter": true,
    "label": "Type",
    "required": false,
    "type": "category"
  },
  "title": {
    "is_filter": false,
    "label": "Title",
    "required": true,
    "type": "string"
  },
  "version": {
    "default_value": "-",
    "is_filter": false,
    "label": "Version",
    "required": false,
    "type": "string"
  }
}