{
    "authors": [
        "Christopho"
    ],
    "categories": [
        "Solarus"
    ],
    "creation_date": "2007-04-01",
    "excerpt": "depuis tout-à-l'heure vous arrêtez pas de râler, y'a vrmt rien qui vous convient\r\nLe côté blog, vs aimez pas, les news de Marco on dirait....",
    "id": "2007-04-01-un-peu-d-optimisme",
    "image_thumbnail": "..\/..\/..\/..\/..\/assets\/blog\/default_article_thumbnail.jpg",
    "page_override": {
        "meta_description": "",
        "meta_title": "Un peu d'optimisme",
        "parent": "news",
        "slug": "news/2007-04-01-un-peu-d-optimisme",
        "title": "Un peu d'optimisme"
    },
    "page_slug": "news/2007-04-01-un-peu-d-optimisme",
    "publish": true,
    "title": "Un peu d'optimisme"
}