{
    "authors": [
        "Christopho"
    ],
    "categories": [
        "Solarus"
    ],
    "creation_date": "2013-06-25",
    "excerpt": "Due to Murphy's law, I introduced an important bug at the very end of my tests, just before releasing Solarus 1.0.2. This bug made you fail to push....",
    "id": "2013-06-25-solarus-1-0-3-released-no-more-blocked-blocks",
    "image_thumbnail": "..\/..\/..\/..\/..\/assets\/blog\/default_article_thumbnail.jpg",
    "page_override": {
        "meta_description": "",
        "meta_title": "Solarus 1.0.3 released, no more blocked blocks",
        "parent": "news",
        "slug": "news/2013-06-25-solarus-1-0-3-released-no-more-blocked-blocks",
        "title": "Solarus 1.0.3 released, no more blocked blocks"
    },
    "page_slug": "news/2013-06-25-solarus-1-0-3-released-no-more-blocked-blocks",
    "publish": true,
    "title": "Solarus 1.0.3 released, no more blocked blocks"
}