{
    "authors": [
        "Christopho"
    ],
    "categories": [
        "Solarus"
    ],
    "creation_date": "2012-05-29",
    "excerpt": "Trois nouveaux épisodes de la solution vidéo sont disponibles ! Et ce sont les trois derniers car nous sommes arrivés à la fin du jeu. \r\n\r\nLa....",
    "id": "2012-05-29-suite-et-fin-de-la-soluce-vid-eacute-o",
    "image_thumbnail": "..\/..\/..\/..\/..\/assets\/blog\/default_article_thumbnail.jpg",
    "page_override": {
        "meta_description": "",
        "meta_title": "Suite et fin de la soluce vid&eacute;o !",
        "parent": "news",
        "slug": "news/2012-05-29-suite-et-fin-de-la-soluce-vid-eacute-o",
        "title": "Suite et fin de la soluce vid&eacute;o !"
    },
    "page_slug": "news/2012-05-29-suite-et-fin-de-la-soluce-vid-eacute-o",
    "publish": true,
    "title": "Suite et fin de la soluce vid&eacute;o !"
}