{
    "authors": [
        "Christopho"
    ],
    "categories": [
        "Solarus"
    ],
    "creation_date": "2009-09-26",
    "excerpt": "Voici une petite nouvelle pour vous tenir au courant de l'avancement de notre création [url=http:\/\/www.zelda-solarus.com\/jeu-zsdx]Zelda: Mystery of....",
    "id": "2009-09-26-zelda-solarus-dx-la-d-eacute-mo-avance",
    "image_thumbnail": "..\/..\/..\/..\/..\/assets\/blog\/default_article_thumbnail.jpg",
    "page_override": {
        "meta_description": "",
        "meta_title": "Zelda Solarus DX : la d&eacute;mo avance",
        "parent": "news",
        "slug": "news/2009-09-26-zelda-solarus-dx-la-d-eacute-mo-avance",
        "title": "Zelda Solarus DX : la d&eacute;mo avance"
    },
    "page_slug": "news/2009-09-26-zelda-solarus-dx-la-d-eacute-mo-avance",
    "publish": true,
    "title": "Zelda Solarus DX : la d&eacute;mo avance"
}