{
    "authors": [
        "Christopho"
    ],
    "categories": [
        "Solarus"
    ],
    "creation_date": "2002-04-26",
    "excerpt": "Salut à tous !\nJe suis de retour de ma semaine de vacances qui je dois dire était ensoleillée ! Heuresement que ce soleil a compensé mon absence....",
    "id": "2002-04-26-je-suis-de-retour",
    "image_thumbnail": "..\/..\/..\/..\/..\/assets\/blog\/default_article_thumbnail.jpg",
    "page_override": {
        "meta_description": "",
        "meta_title": "Je suis de retour !",
        "parent": "news",
        "slug": "news/2002-04-26-je-suis-de-retour",
        "title": "Je suis de retour !"
    },
    "page_slug": "news/2002-04-26-je-suis-de-retour",
    "publish": true,
    "title": "Je suis de retour !"
}