{
    "authors": [
        "Christopho"
    ],
    "categories": [
        "Solarus"
    ],
    "creation_date": "2002-04-14",
    "excerpt": "Un nouveau fond d'écran nous a été envoyé par un de nos visiteurs (jcj39) que nous remercions ! N'hésitez pas vous aussi à nous envoyer vos....",
    "id": "2002-04-14-nouveau-fond-d-ecran",
    "image_thumbnail": "..\/..\/..\/..\/..\/assets\/blog\/default_article_thumbnail.jpg",
    "page_override": {
        "meta_description": "",
        "meta_title": "Nouveau fond d'écran",
        "parent": "news",
        "slug": "news/2002-04-14-nouveau-fond-d-ecran",
        "title": "Nouveau fond d'écran"
    },
    "page_slug": "news/2002-04-14-nouveau-fond-d-ecran",
    "publish": true,
    "title": "Nouveau fond d'écran"
}