{
    "authors": [
        "Christopho"
    ],
    "categories": [
        "Solarus"
    ],
    "creation_date": "2013-06-23",
    "excerpt": "\r\n\r\nEDIT : Des instabilités ont été signalées dans les versions 1.6.0 et 1.6.1, en particulier dans Zelda Mystery of Solarus XD. Une nouvelle....",
    "id": "2013-06-23-zsdx-1-6-zsxd-1-6-et-solarus-1-0-4",
    "image_thumbnail": "..\/..\/..\/..\/..\/assets\/blog\/default_article_thumbnail.jpg",
    "page_override": {
        "meta_description": "",
        "meta_title": "ZSDX 1.6, ZSXD 1.6 et Solarus 1.0.4",
        "parent": "news",
        "slug": "news/2013-06-23-zsdx-1-6-zsxd-1-6-et-solarus-1-0-4",
        "title": "ZSDX 1.6, ZSXD 1.6 et Solarus 1.0.4"
    },
    "page_slug": "news/2013-06-23-zsdx-1-6-zsxd-1-6-et-solarus-1-0-4",
    "publish": true,
    "title": "ZSDX 1.6, ZSXD 1.6 et Solarus 1.0.4"
}