{
    "authors": [
        "Christopho"
    ],
    "categories": [
        "Solarus"
    ],
    "creation_date": "2005-08-31",
    "excerpt": "Ca faisait longtemps qu'on vous les promettait ! Et bien les voici, les artworks officiels du jeu The Legend Of Zelda : Mercuris' Chest ! J'ai opté....",
    "id": "2005-08-31-les-artworks-de-mercuris-chest-enfin-publi-eacute-s",
    "image_thumbnail": "..\/..\/..\/..\/..\/assets\/blog\/default_article_thumbnail.jpg",
    "page_override": {
        "meta_description": "",
        "meta_title": "Les artworks de Mercuris' Chest enfin publi&eacute;s !",
        "parent": "news",
        "slug": "news/2005-08-31-les-artworks-de-mercuris-chest-enfin-publi-eacute-s",
        "title": "Les artworks de Mercuris' Chest enfin publi&eacute;s !"
    },
    "page_slug": "news/2005-08-31-les-artworks-de-mercuris-chest-enfin-publi-eacute-s",
    "publish": true,
    "title": "Les artworks de Mercuris' Chest enfin publi&eacute;s !"
}