{
    "authors": [
        "Christopho"
    ],
    "categories": [
        "Solarus"
    ],
    "creation_date": "2014-04-01",
    "excerpt": "Depuis plus de 10 ans d'existence, la communauté Zelda Solarus a toujours été en perpétuelle évolution.\r\n\r\nC'est donc tout naturellement que....",
    "id": "2014-04-01-zelda-solarus-devient-solarus-software",
    "image_thumbnail": "..\/..\/..\/..\/..\/assets\/blog\/default_article_thumbnail.jpg",
    "page_override": {
        "meta_description": "",
        "meta_title": "Zelda Solarus devient Solarus Software",
        "parent": "news",
        "slug": "news/2014-04-01-zelda-solarus-devient-solarus-software",
        "title": "Zelda Solarus devient Solarus Software"
    },
    "page_slug": "news/2014-04-01-zelda-solarus-devient-solarus-software",
    "publish": true,
    "title": "Zelda Solarus devient Solarus Software"
}