{
    "authors": [
        "Christopho"
    ],
    "categories": [
        "Solarus"
    ],
    "creation_date": "2008-04-05",
    "excerpt": "La rubrique consacrée à Zelda Solarus DX commence peu à peu à se remplir ! Aujourd'hui, deux premières pages sont disponibles. Il s'agit d'abord....",
    "id": "2008-04-05-premi-egrave-res-pages-sur-zelda-solarus-dx",
    "image_thumbnail": "..\/..\/..\/..\/..\/assets\/blog\/default_article_thumbnail.jpg",
    "page_override": {
        "meta_description": "",
        "meta_title": "Premi&egrave;res pages sur Zelda Solarus DX",
        "parent": "news",
        "slug": "news/2008-04-05-premi-egrave-res-pages-sur-zelda-solarus-dx",
        "title": "Premi&egrave;res pages sur Zelda Solarus DX"
    },
    "page_slug": "news/2008-04-05-premi-egrave-res-pages-sur-zelda-solarus-dx",
    "publish": true,
    "title": "Premi&egrave;res pages sur Zelda Solarus DX"
}