{
  "has_breadcrumb": true,
  "meta_description": "Download and overview of the Solarus game engine.",
  "meta_title": "Solarus",
  "parent": "home",
  "publish": true,
  "slug": "solarus",
  "title": "Solarus"
}