{
    "authors": [
        "Christopho"
    ],
    "categories": [
        "Solarus"
    ],
    "creation_date": "2005-10-30",
    "excerpt": "C'est en ce 31 octoble que j'ai le plaisir de vous souhaiter à tous et à toutes, au nom de l'équipe, un très joyeux Halloween sur Zelda-Solarus....",
    "id": "2005-10-30-joyeux-halloween",
    "image_thumbnail": "..\/..\/..\/..\/..\/assets\/blog\/default_article_thumbnail.jpg",
    "page_override": {
        "meta_description": "",
        "meta_title": "Joyeux Halloween !",
        "parent": "news",
        "slug": "news/2005-10-30-joyeux-halloween",
        "title": "Joyeux Halloween !"
    },
    "page_slug": "news/2005-10-30-joyeux-halloween",
    "publish": true,
    "title": "Joyeux Halloween !"
}