{
    "authors": [
        "Christopho"
    ],
    "categories": [
        "Solarus"
    ],
    "creation_date": "2002-09-03",
    "excerpt": "Une petite mise à jour pour vous informer de l'avancement de notre prochaine création.\n\nLe titre définitif du jeu est en fait décidé depuis....",
    "id": "2002-09-03-zs-2-encore-un-peu-de-patience",
    "image_thumbnail": "..\/..\/..\/..\/..\/assets\/blog\/default_article_thumbnail.jpg",
    "page_override": {
        "meta_description": "",
        "meta_title": "ZS 2 : encore un peu de patience",
        "parent": "news",
        "slug": "news/2002-09-03-zs-2-encore-un-peu-de-patience",
        "title": "ZS 2 : encore un peu de patience"
    },
    "page_slug": "news/2002-09-03-zs-2-encore-un-peu-de-patience",
    "publish": true,
    "title": "ZS 2 : encore un peu de patience"
}