{
    "authors": [
        "Newlink"
    ],
    "categories": [
        "Solarus"
    ],
    "creation_date": "2017-12-22",
    "excerpt": "Salut !\r\n\r\nVous souvenez-vous des boss que vous aviez affrontés dans Mystery of Solarus DX\u00a0?\r\n\r\nIl faut reconnaùtre que Christopho avait réussi....",
    "id": "2017-12-22-des-combats-dantesques",
    "image_thumbnail": "..\/..\/..\/..\/..\/assets\/blog\/default_article_thumbnail.jpg",
    "page_override": {
        "meta_description": "",
        "meta_title": "Des combats dantesques",
        "parent": "news",
        "slug": "news/2017-12-22-des-combats-dantesques",
        "title": "Des combats dantesques"
    },
    "page_slug": "news/2017-12-22-des-combats-dantesques",
    "publish": true,
    "title": "Des combats dantesques"
}