{
    "authors": [
        "Christopho"
    ],
    "categories": [
        "Solarus"
    ],
    "creation_date": "2016-09-29",
    "excerpt": "The Solarus resource pack of Legend of Zelda: A Link to the Past is regularly updated even if I don't always annouce it. Lots of elements are still....",
    "id": "2016-09-29-zelda-a-link-to-the-past-resource-pack-updated",
    "image_thumbnail": "..\/..\/..\/..\/..\/assets\/blog\/default_article_thumbnail.jpg",
    "page_override": {
        "meta_description": "",
        "meta_title": "Zelda: A Link to the Past resource pack updated",
        "parent": "news",
        "slug": "news/2016-09-29-zelda-a-link-to-the-past-resource-pack-updated",
        "title": "Zelda: A Link to the Past resource pack updated"
    },
    "page_slug": "news/2016-09-29-zelda-a-link-to-the-past-resource-pack-updated",
    "publish": true,
    "title": "Zelda: A Link to the Past resource pack updated"
}