{
    "authors": [
        "Christopho"
    ],
    "categories": [
        "Solarus"
    ],
    "creation_date": "2001-12-11",
    "excerpt": "Pour faire que ce jeu soit encore plus beau, on a refait les cartes et boussoles des donjons ! C'est beaucoup plus soigné ! D'ailleurs, voici deux....",
    "id": "2001-12-11-nouvelles-cartes",
    "image_thumbnail": "..\/..\/..\/..\/..\/assets\/blog\/default_article_thumbnail.jpg",
    "page_override": {
        "meta_description": "",
        "meta_title": "Nouvelles cartes",
        "parent": "news",
        "slug": "news/2001-12-11-nouvelles-cartes",
        "title": "Nouvelles cartes"
    },
    "page_slug": "news/2001-12-11-nouvelles-cartes",
    "publish": true,
    "title": "Nouvelles cartes"
}