{
    "authors": [
        "Christopho"
    ],
    "categories": [
        "Solarus"
    ],
    "creation_date": "2001-12-31",
    "excerpt": "Nous tenons à vous souhaiter une très bonne et heureuse année 2002 ! Nous souhaitons que vous soyez toujours fidèles à notre création qui....",
    "id": "2001-12-31-bonne-annee-2002",
    "image_thumbnail": "..\/..\/..\/..\/..\/assets\/blog\/default_article_thumbnail.jpg",
    "page_override": {
        "meta_description": "",
        "meta_title": "Bonne Année 2002",
        "parent": "news",
        "slug": "news/2001-12-31-bonne-annee-2002",
        "title": "Bonne Année 2002"
    },
    "page_slug": "news/2001-12-31-bonne-annee-2002",
    "publish": true,
    "title": "Bonne Année 2002"
}