{
    "authors": [
        "Christopho"
    ],
    "categories": [
        "Solarus"
    ],
    "creation_date": "2013-12-01",
    "excerpt": "An update of Solarus, Zelda Mystery of Solarus DX and XD was just released!\r\n\r\nThe main problem was a bug in Billy's cave in ZSDX. You could be....",
    "id": "2013-12-01-solarus-1-1-1-released-fixed-wrong-teletransportation",
    "image_thumbnail": "..\/..\/..\/..\/..\/assets\/blog\/default_article_thumbnail.jpg",
    "page_override": {
        "meta_description": "",
        "meta_title": "Solarus 1.1.1 released, fixed wrong teletransportation",
        "parent": "news",
        "slug": "news/2013-12-01-solarus-1-1-1-released-fixed-wrong-teletransportation",
        "title": "Solarus 1.1.1 released, fixed wrong teletransportation"
    },
    "page_slug": "news/2013-12-01-solarus-1-1-1-released-fixed-wrong-teletransportation",
    "publish": true,
    "title": "Solarus 1.1.1 released, fixed wrong teletransportation"
}