{
    "authors": [
        "Christopho"
    ],
    "categories": [
        "Solarus"
    ],
    "creation_date": "2002-03-02",
    "excerpt": "Le jeu avance à très grands pas vers la fin ! Je viens juste d'envoyer un guide complet à Christopho pour le niveau 8 qui lui posait énormément....",
    "id": "2002-03-02-avancement-du-jeu",
    "image_thumbnail": "..\/..\/..\/..\/..\/assets\/blog\/default_article_thumbnail.jpg",
    "page_override": {
        "meta_description": "",
        "meta_title": "Avancement du jeu",
        "parent": "news",
        "slug": "news/2002-03-02-avancement-du-jeu",
        "title": "Avancement du jeu"
    },
    "page_slug": "news/2002-03-02-avancement-du-jeu",
    "publish": true,
    "title": "Avancement du jeu"
}